D:\works\workspace\web\src\main\java\com\ipv\web\repository\TokenResetPasswordRepository.java
D:\works\workspace\web\src\main\java\com\ipv\web\WebApplication.java
D:\works\workspace\web\src\main\java\com\ipv\web\configurations\SecurityConfiguration.java
D:\works\workspace\web\src\main\java\com\ipv\web\configurations\CustomMessageSourceConfiguration.java
D:\works\workspace\web\src\main\java\com\ipv\web\models\Role.java
D:\works\workspace\web\src\main\java\com\ipv\web\components\DataSeedingComponent.java
D:\works\workspace\web\src\main\java\com\ipv\web\controllers\HomeController.java
D:\works\workspace\web\src\main\java\com\ipv\web\repository\ContactRepository.java
D:\works\workspace\web\src\main\java\com\ipv\web\models\Contact.java
D:\works\workspace\web\src\main\java\com\ipv\web\services\EngineService.java
D:\works\workspace\web\src\main\java\com\ipv\web\repository\RoleRepository.java
D:\works\workspace\web\src\main\java\com\ipv\web\repository\UserRepository.java
D:\works\workspace\web\src\main\java\com\ipv\web\services\ContactService.java
D:\works\workspace\web\src\main\java\com\ipv\web\models\User.java
D:\works\workspace\web\src\main\java\com\ipv\web\services\UserService.java
D:\works\workspace\web\src\main\java\com\ipv\web\models\TokenResetPassword.java
